Hands–On Data Visualization with {ggplot2}
…
library(gapminder)

The Data

The famous Gapminder data set

life expectancy, GDP per capita, and population by country

contains complete data covering the years 1952-2007 in 5-year steps

library(gapminder)
gapminder

# A tibble: 1,704 × 6
   country     continent  year lifeExp      pop gdpPercap
   <fct>       <fct>     <int>   <dbl>    <int>     <dbl>
 1 Afghanistan Asia       1952    28.8  8425333      779.
 2 Afghanistan Asia       1957    30.3  9240934      821.
 3 Afghanistan Asia       1962    32.0 10267083      853.
 4 Afghanistan Asia       1967    34.0 11537966      836.
 5 Afghanistan Asia       1972    36.1 13079460      740.
 6 Afghanistan Asia       1977    38.4 14880372      786.
 7 Afghanistan Asia       1982    39.9 12881816      978.
 8 Afghanistan Asia       1987    40.8 13867957      852.
 9 Afghanistan Asia       1992    41.7 16317921      649.
10 Afghanistan Asia       1997    41.8 22227415      635.
# ℹ 1,694 more rows
…
gapminder <- readr::read_csv("./data/gapminder.csv")

The Data

The famous Gapminder data set

life expectancy, GDP per capita, and population by country

contains complete data covering the years 1952-2007 in 5-year steps

gapminder <- readr::read_csv("./data/gapminder.csv")
gapminder

# A tibble: 1,704 × 6
   country     continent  year lifeExp      pop gdpPercap
   <chr>       <chr>     <dbl>   <dbl>    <dbl>     <dbl>
 1 Afghanistan Asia       1952    28.8  8425333      779.
 2 Afghanistan Asia       1957    30.3  9240934      821.
 3 Afghanistan Asia       1962    32.0 10267083      853.
 4 Afghanistan Asia       1967    34.0 11537966      836.
 5 Afghanistan Asia       1972    36.1 13079460      740.
 6 Afghanistan Asia       1977    38.4 14880372      786.
 7 Afghanistan Asia       1982    39.9 12881816      978.
 8 Afghanistan Asia       1987    40.8 13867957      852.
 9 Afghanistan Asia       1992    41.7 16317921      649.
10 Afghanistan Asia       1997    41.8 22227415      635.
# ℹ 1,694 more rows
…
We are using a few subsets of the Gapminder data:

library(dplyr)
gm2007 <- filter(gapminder, year == 2007)

Data Preparation

We are using a few subsets of the Gapminder data:

library(dplyr)
gm2007 <- filter(gapminder, year == 2007)
gm2007

# A tibble: 142 × 7
   country     continent  year lifeExp       pop gdpPercap income_lvl
   <chr>       <chr>     <dbl>   <dbl>     <dbl>     <dbl> <chr>     
 1 Afghanistan Asia       2007    43.8  31889923      975. 1         
 2 Albania     Europe     2007    76.4   3600523     5937. 3         
 3 Algeria     Africa     2007    72.3  33333216     6223. 3         
 4 Angola      Africa     2007    42.7  12420476     4797. 3         
 5 Argentina   Americas   2007    75.3  40301927    12779. 4         
 6 Australia   Oceania    2007    81.2  20434176    34435. 4         
 7 Austria     Europe     2007    79.8   8199783    36126. 4         
 8 Bahrain     Asia       2007    75.6    708573    29796. 4         
 9 Bangladesh  Asia       2007    64.1 150448339     1391. 2         
10 Belgium     Europe     2007    79.4  10392226    33693. 4         
# ℹ 132 more rows
…
The Data

We are using a few subsets of the Gapminder data:

library(dplyr)
gm_g7 <- filter(gapminder, country %in% c(
  "United States", "Canada", "France", "Germany", "Italy", "Japan", "United Kingdom")
)
gm_g7

# A tibble: 84 × 7
   country continent  year lifeExp      pop gdpPercap income_lvl
   <chr>   <chr>     <dbl>   <dbl>    <dbl>     <dbl> <chr>     
 1 Canada  Americas   1952    68.8 14785584    11367. 3         
 2 Canada  Americas   1957    70.0 17010154    12490. 3         
 3 Canada  Americas   1962    71.3 18985849    13462. 4         
 4 Canada  Americas   1967    72.1 20819767    16077. 4         
 5 Canada  Americas   1972    72.9 22284500    18971. 4         
 6 Canada  Americas   1977    74.2 23796400    22091. 4         
 7 Canada  Americas   1982    75.8 25201900    22899. 4         
 8 Canada  Americas   1987    76.9 26549700    26627. 4         
 9 Canada  Americas   1992    78.0 28523502    26343. 4         
10 Canada  Americas   1997    78.6 30305843    28955. 4         
# ℹ 74 more rows
…
Your Turn: Data Preparation

gapminder %>% 
  filter(year %in% c(1987, 2007))

# A tibble: 284 × 7
   country     continent  year lifeExp      pop gdpPercap income_lvl
   <chr>       <chr>     <dbl>   <dbl>    <dbl>     <dbl> <chr>     
 1 Afghanistan Asia       1987    40.8 13867957      852. 1         
 2 Afghanistan Asia       2007    43.8 31889923      975. 1         
 3 Albania     Europe     1987    72    3075321     3739. 2         
 4 Albania     Europe     2007    76.4  3600523     5937. 3         
 5 Algeria     Africa     1987    65.8 23254956     5681. 3         
 6 Algeria     Africa     2007    72.3 33333216     6223. 3         
 7 Angola      Africa     1987    39.9  7874230     2430. 2         
 8 Angola      Africa     2007    42.7 12420476     4797. 3         
 9 Argentina   Americas   1987    70.8 31620918     9140. 3         
10 Argentina   Americas   2007    75.3 40301927    12779. 4         
# ℹ 274 more rows
…
